…
data <- do.call(rbind, data_general) %>% as.tibble()
```


```{r show-combined, results = "hide"}
data 
```

```{r output-show-combined}
# # A tibble: 8,360 x 11
#       Div       Date    HomeTeam       AwayTeam  FTHG  FTAG    FTR  HTHG  HTAG    HTR season
#    <fctr>     <date>      <fctr>         <fctr> <int> <int> <fctr> <int> <int> <fctr>  <dbl>
#  1     E0 1995-08-19 Aston Villa     Man United     3     1      H     3     0      H   1996
#  2     E0 1995-08-19   Blackburn            QPR     1     0      H     1     0      H   1996
#  3     E0 1995-08-19     Chelsea        Everton     0     0      D     0     0      D   1996
#  4     E0 1995-08-19   Liverpool Sheffield Weds     1     0      H     0     0      D   1996
#  5     E0 1995-08-19    Man City      Tottenham     1     1      D     0     1      A   1996
#  6     E0 1995-08-19   Newcastle       Coventry     3     0      H     1     0      H   1996
#  7     E0 1995-08-19 Southampton  Nott'm Forest     3     4      A     1     3      A   1996
#  8     E0 1995-08-19    West Ham          Leeds     1     2      A     1     0      H   1996
#  9     E0 1995-08-19   Wimbledon         Bolton     3     2      H     2     2      D   1996
# 10     E0 1995-08-20     Arsenal  Middlesbrough     1     1      D     1     1      D   1996
# # ... with 8,350 more rows
```
…
data_tidy
```

```{r show-tidy-data}
# # A tibble: 16,720 x 13
# # Groups:   season, team [440]
#      Div season       Date        team venue   FTR  FTGF  FTGA   HTR  HTGF  HTGA points_earned points
#    <chr>  <dbl>     <date>       <chr> <chr> <chr> <int> <int> <chr> <int> <int>         <dbl>  <dbl>
#  1    E0   1996 1995-08-19 Aston Villa  Home     W     3     1     W     3     0             3      3
#  2    E0   1996 1995-08-19   Blackburn  Home     W     1     0     W     1     0             3      3
#  3    E0   1996 1995-08-19     Chelsea  Home     D     0     0     D     0     0             1      1
#  4    E0   1996 1995-08-19   Liverpool  Home     W     1     0     D     0     0             3      3
#  5    E0   1996 1995-08-19    Man City  Home     D     1     1     L     0     1             1      1
#  6    E0   1996 1995-08-19   Newcastle  Home     W     3     0     W     1     0             3      3
#  7    E0   1996 1995-08-19 Southampton  Home     L     3     4     L     1     3             0      0
#  8    E0   1996 1995-08-19    West Ham  Home     L     1     2     W     1     0             0      0
#  9    E0   1996 1995-08-19   Wimbledon  Home     W     3     2     D     2     2             3      3
# 10    E0   1996 1995-08-19  Man United  Away     L     1     3     L     0     3             0      0
# # ... with 16,710 more rows
```
…
